{
    "type": "minecraft:crafting_shaped",
    "pattern": [
        "###",
        "###",
        "###"
    ],
    "key": {
        "#": {
            "item": "moresetsmod:obsidian_ingot"
        }
    },
    "result": {
        "item": "minecraft:obsidian"
    }
}