{
    "type": "minecraft:crafting_shaped",
    "pattern": [
        "###",
        " / ",
        " / "
    ],
    "key": {
        "#": {
            "item": "moresetsmod:obsidian_ingot"
        },
        "/": {
            "item": "minecraft:stick"
        }
    },
    "result": {
        "item": "moresetsmod:obsidian_pickaxe"
    }
}